bb.__gl_setmode,0x407169
bb.xset_binary_mode,0x405267
bb.set_binary_mode,0x407188
bb.__gl_setmode_check,0x40717a
bb.main,0x402530
bb.base32_decode_ctx,0x4032c8
bb.get_8,0x402c45
bb.rpl_memchr,0x406ecd
bb.decode_8,0x402d59
bb.isbase32,0x402c06
bb.do_decode,0x402278
bb.base32_decode_ctx_init,0x402c31
bb.base32_encode,0x402861
bb.to_uchar,0x402852
bb.do_encode,0x40209d
bb.wrap_write,0x401f35
bb.usage,0x401e6e
bb.emit_mandatory_arg_note,0x401cb8
