bb.xmemdup,0x4059d7
bb.chownat,0x403bed
bb.change_file_owner,0x4030a6
bb.lchownat,0x403c1e
bb.rpl_fchownat,0x40628e
bb.rpl_lchown,0x40a0c7
bb.rpl_chown,0x40cd3b
bb.restricted_chown,0x402e8c
bb.describe_change,0x402ccd
bb.user_group_str,0x402c10
bb.uid_to_name,0x402bcb
bb.xstrdup,0x405a0b
bb.chown_files,0x4039c5
bb.gid_to_name,0x402b86
bb.chopt_init,0x402b36
bb.main,0x4026bf
bb.usage,0x40256d
bb.parse_group,0x4024ba
