bb.freea,0x420657
bb.mmalloca,0x420594
bb.revert_tz,0x411a2a
bb.change_env,0x411918
bb.setenv_TZ,0x4118e1
bb.rpl_setenv,0x420394
bb.rpl_unsetenv,0x411cd0
bb.save_abbr,0x4116c0
bb.extend_abbrs,0x4115d2
bb.equal_tm,0x41152a
bb._unsetenv,0x411006
bb.ranged_convert,0x4106ae
bb.convert_time,0x41067c
bb.guess_time_tm,0x410513
bb.long_int_avg,0x4104c4
bb.ydhms_diff,0x410271
bb.isdst_differ,0x410236
bb.shr,0x410112
bb.rpl_mktime,0x410fdd
bb.rpl_localtime,0x410022
bb.year,0x40c717
bb.tzfree,0x411890
bb.debug_mktime_not_ok,0x40a25b
bb.debug_strftime,0x40a20a
bb.debug_strfdate,0x40a198
bb.debug_strfdatetime,0x40a0ac
bb.nstrftime,0x41c3a8
bb.memcpy_lowcase,0x41c2a5
bb.memcpy_uppcase,0x41c2fe
bb.mktime_ok,0x409ff0
bb.c_isalpha,0x41bb95
bb.c_isdigit,0x41bbbf
bb.c_toupper,0x41bc25
bb.lookup_word,0x4096cd
bb.lookup_zone,0x4095fc
bb.to_tm_year,0x409467
bb.tm_year_str,0x4093d7
bb.to_hour,0x409350
bb.yyparse,0x406fc7
bb.yylex,0x4099fa
bb.c_isspace,0x41bbdf
bb.yyerror,0x409fdd
bb.time_zone_hhmm,0x4090a2
bb.yydestruct,0x406fa3
bb.debug_print_relative_time,0x406df1
bb.print_rel_part,0x406d99
bb.debug_print_current_time,0x40692d
bb.time_zone_str,0x406737
bb.str_days,0x406603
bb.set_hhmmss,0x4065b7
bb.apply_relative_time,0x405cca
bb.digits_to_date_time,0x405a37
bb.dbg_printf,0x40597b
bb.to_uchar,0x40596c
bb.time_overflow,0x40595d
bb.fprintftime,0x40335c
bb.iso_week_days,0x40330b
bb.mktime_z,0x411b41
bb.rpl_timegm,0x411c16
bb.leapyear,0x41018b
bb.fwrite_lowcase,0x40326d
bb.fwrite_uppcase,0x4032bc
bb.settime,0x40e25f
bb.posixtime,0x40cac5
bb.posix_time_parse,0x40c809
bb.tzalloc,0x41160d
bb.rpl_tzset,0x411c45
bb.rpl_putenv,0x4110e4
bb.main,0x402609
bb.show_date,0x402d20
bb.localtime_rz,0x411a95
bb.set_tz,0x41195e
bb.getenv_TZ,0x4118d1
bb.parse_datetime2,0x40a52e
bb.batch_convert,0x40241a
bb.usage,0x4021b7
bb.timetostr,0x402184
bb.imaxtostr,0x40582b
