bb.isdst_differ,0x41ae8e
bb.call_freefun,0x41a3c8
bb.end_wpattern,0x417c51
bb.ext_wmatch,0x417d94
bb.is_char_class,0x41702b
bb.end_pattern,0x416673
bb.ext_match,0x4167b8
bb.mpsort_into_tmp,0x410378
bb.verrevcmp,0x40d1d9
bb.order,0x40d189
bb.match_suffix,0x40d0ae
bb.indent,0x40b236
bb.prep_non_filename_text,0x40a4e7
bb.print_color_indicator,0x40a853
bb.file_escape,0x409f17
bb.print_type_indicator,0x40a7fe
bb.get_type_indicator,0x40a6c9
bb.print_name_with_quoting,0x40a3a3
bb.get_color_indicator,0x40a8a3
bb.format_inode,0x408f5b
bb.format_group,0x408e25
bb.format_user,0x408dcb
bb.format_user_or_group,0x408d00
bb.long_time_expected_width,0x408c42
bb.align_nstrftime,0x408baf
bb.print_long_format,0x408fce
bb.filemodestring,0x40ced9
bb.print_horizontal,0x40afd6
bb.print_with_separator,0x40b12f
bb.length_of_file_name_and_frills,0x40acd2
bb.quote_name_width,0x409e4f
bb.print_many_per_line,0x40ae80
bb.calculate_columns,0x40b5ba
bb.init_column_info,0x40b392
bb.print_file_name_and_frills,0x40a523
bb.mpsort,0x41075f
bb.mpsort_with_tmp,0x41051a
bb.rev_xstrcoll_df_version,0x408883
bb.xstrcoll_df_version,0x408810
bb.rev_xstrcoll_version,0x4087eb
bb.xstrcoll_version,0x4087c6
bb.cmp_version,0x40879b
bb.filevercmp,0x40d3f7
bb.rev_strcmp_df_extension,0x408723
bb.rev_xstrcoll_df_extension,0x4086ab
bb.strcmp_df_extension,0x408633
bb.xstrcoll_df_extension,0x4085bb
bb.rev_strcmp_extension,0x408591
bb.rev_xstrcoll_extension,0x408567
bb.strcmp_extension,0x40853d
bb.xstrcoll_extension,0x408513
bb.rev_strcmp_df_name,0x40849b
bb.rev_xstrcoll_df_name,0x408423
bb.strcmp_df_name,0x4083ab
bb.xstrcoll_df_name,0x408333
bb.rev_strcmp_name,0x408309
bb.rev_xstrcoll_name,0x4082df
bb.strcmp_name,0x4082b5
bb.xstrcoll_name,0x40828b
bb.rev_strcmp_df_size,0x408213
bb.rev_xstrcoll_df_size,0x40819b
bb.strcmp_df_size,0x408123
bb.xstrcoll_df_size,0x4080ab
bb.rev_strcmp_size,0x408081
bb.rev_xstrcoll_size,0x408057
bb.strcmp_size,0x40802d
bb.xstrcoll_size,0x408003
bb.rev_strcmp_df_atime,0x407f8b
bb.rev_xstrcoll_df_atime,0x407f13
bb.strcmp_df_atime,0x407e9b
bb.xstrcoll_df_atime,0x407e23
bb.rev_strcmp_atime,0x407df9
bb.rev_xstrcoll_atime,0x407dcf
bb.strcmp_atime,0x407da5
bb.xstrcoll_atime,0x407d7b
bb.rev_strcmp_df_mtime,0x407d03
bb.rev_xstrcoll_df_mtime,0x407c8b
bb.strcmp_df_mtime,0x407c13
bb.xstrcoll_df_mtime,0x407b9b
bb.rev_strcmp_mtime,0x407b71
bb.rev_xstrcoll_mtime,0x407b47
bb.strcmp_mtime,0x407b1d
bb.xstrcoll_mtime,0x407af3
bb.rev_strcmp_df_ctime,0x407a7b
bb.rev_xstrcoll_df_ctime,0x407a03
bb.strcmp_df_ctime,0x40798b
bb.xstrcoll_df_ctime,0x407913
bb.rev_strcmp_ctime,0x4078e9
bb.rev_xstrcoll_ctime,0x4078bf
bb.strcmp_ctime,0x407895
bb.xstrcoll_ctime,0x40786b
bb.cmp_extension,0x4077cd
bb.cmp_size,0x40772a
bb.cmp_atime,0x40769b
bb.cmp_mtime,0x40760c
bb.cmp_ctime,0x40757d
bb.get_stat_ctime,0x4141bf
bb.xstrcoll,0x4074ce
bb.basename_is_dot_or_dotdot,0x4072d8
bb.make_link_name,0x407206
bb.get_link_name,0x4071a9
bb.format_group_width,0x408f1e
bb.getgroup,0x40f983
bb.format_user_width,0x408ee1
bb.format_user_or_group_width,0x408e7f
bb.getuser,0x40f892
bb.attach,0x40b2db
bb.needs_quoting,0x40650a
bb.quotearg_buffer,0x413bf5
bb.has_capability_cache,0x406493
bb.file_has_acl,0x40cb59
bb.file_has_acl_cache,0x40640c
bb.getfilecon_cache,0x40635f
bb.errno_unsupported,0x406329
bb.has_capability,0x4061c2
bb.unsigned_file_size,0x4061b4
bb.file_ignored,0x406110
bb.patterns_match,0x4060b6
bb.quote_name,0x40a011
bb.quote_name_buf,0x409963
bb.file_failure,0x4059e5
bb.set_exit_status,0x4059b4
bb.gnu_fnmatch,0x41866b
bb.known_term_type,0x4054da
bb.clone_quoting_options,0x412afe
bb.add_ignore_pattern,0x406075
bb.usage,0x40b855
bb.getenv_quoting_style,0x40592f
bb.set_line_length,0x4041c2
bb.get_quoting_style,0x412b4a
bb.extract_dirs_from_files,0x407302
bb.is_directory,0x407172
bb.sort_files,0x408955
bb.initialize_ordering_vector,0x4088f6
bb.hash_get_n_entries,0x40d755
bb.print_dir,0x405ad3
bb.queue_directory,0x405a40
bb.gobble_file,0x406572
bb.clear_files,0x406261
bb.free_ent,0x4061e0
bb.xgethostname,0x414c79
bb._obstack_begin,0x41a53d
bb.decode_switches,0x404227
bb.set_quoting_style,0x412b68
bb.main,0x403b69
bb.signal_restore,0x403b59
bb.signal_init,0x403b49
bb.signal_setup,0x403948
bb.process_signals,0x403883
bb.stophandler,0x403861
bb.sighandler,0x403845
bb.set_normal_color,0x403808
bb.restore_default_color,0x4037ee
bb.put_indicator,0x40ac71
bb.is_colored,0x403760
bb.free_pending_ent,0x403727
bb.visit_dir,0x4036a6
bb.dev_ino_free,0x40368c
bb.dev_ino_compare,0x403637
bb.dev_ino_hash,0x40360e
bb.abformat_init,0x403446
bb.abmon_init,0x40335e
bb.file_escape_init,0x4032f3
bb.c_isalnum,0x40bfe7
bb.first_percent_b,0x4032a3
bb.dired_dump_obstack,0x40313b
bb.dev_ino_pop,0x4030ac
bb.dev_ino_push,0x403002
bb._obstack_newchunk,0x41a598
bb.call_chunkfun,0x41a378
bb.print_and_abort,0x41a78d
bb.is_smack_enabled,0x402ff7
