bb.component_len,0x40202c
bb.component_start,0x40200c
bb.rpl_mbrlen,0x4057fc
bb.portable_chars_only,0x401f2b
bb.no_leading_hyphen,0x401ea0
bb.validate_file_name,0x40206d
bb.main,0x401cf6
bb.usage,0x401c5a
