bb.main,0x404d92
bb.parse_chunk,0x404cfb
bb.ofile_open,0x40438c
bb.bytes_chunk_extract,0x404127
bb.lines_chunk_split,0x403c60
bb.line_bytes_split,0x4038be
bb.lines_split,0x403741
bb.bytes_split,0x40350b
bb.cwrite,0x4033c7
bb.closeout,0x4030f9
bb.create,0x402c7c
bb.input_file_size,0x4026bc
bb.usage,0x4025c8
bb.set_suffix_length,0x40246c
bb.ignorable,0x402442
