bb.main,0x40539d
bb.usage,0x40521d
bb.xasprintf,0x40bf4f
bb.default_format,0x4050e8
bb.do_stat,0x404f53
bb.do_statfs,0x404e43
bb.print_it,0x4049ec
bb.print_stat,0x404294
bb.getenv_quoting_style,0x4041ef
bb.neg_to_zero,0x4041ad
bb.get_birthtime,0x40417c
bb.get_stat_birthtime,0x40b7bd
bb.find_bind_mount,0x403eec
bb.print_statfs,0x403c79
bb.out_file_context,0x403b83
bb.out_epoch_sec,0x40374c
bb.out_minus_zero,0x4036fc
bb.out_uint_x,0x4036b4
bb.out_uint_o,0x40366c
bb.out_uint,0x403624
bb.out_int,0x4035dc
bb.out_string,0x403594
bb.make_format,0x4034bd
bb.human_time,0x4033f6
bb.human_access,0x4033cb
bb.human_fstype,0x402788
