bb.main,0x407cac
bb.isapipe,0x40dba3
bb.ignore_fifo_and_pipe,0x407b3f
bb.parse_options,0x407668
bb.parse_obsolete_option,0x407403
bb.tail_file,0x406f9d
bb.tail,0x406f3e
bb.tail_lines,0x406d11
bb.tail_bytes,0x4069de
bb.tail_forever_inotify,0x4059e7
bb.check_fspec,0x40579f
bb.wd_comparator,0x40576e
bb.wd_hasher,0x405743
bb.tailable_stdin,0x4056b7
bb.any_non_regular_fifo,0x405607
bb.any_symlinks,0x40557b
bb.any_non_remote_file,0x405500
bb.any_remote_file,0x405488
bb.tail_forever,0x404ba4
bb.any_live_files,0x404afa
bb.recheck,0x404453
bb.fremote,0x40437f
bb.start_lines,0x404206
bb.start_bytes,0x4040d5
bb.file_lines,0x403590
bb.xlseek,0x403442
bb.dump_remainder,0x40330a
bb.xwrite_stdout,0x403288
bb.write_header,0x403243
bb.close_fd,0x4031d8
bb.record_open_fd,0x40313c
bb.pretty_name,0x403108
bb.valid_file_spec,0x4030d8
bb.check_output_alive,0x403032
bb.rpl_select,0x40e0e1
bb.usage,0x402ee4
bb.is_local_fs_type,0x4022dd
