bb.collate_error,0x404390
bb.quotearg_n_style_mem,0x403d80
bb.readlinebuffer_delim,0x4029b0
bb.fopen_safer,0x402810
bb.check_order.isra.1,0x401e10
bb.memcmp2,0x402ab0
bb.xmemcoll,0x404420
bb.memcoll,0x405b00
bb.strcoll_loop,0x405a60
bb.usage,0x4024d0
bb.compare_files,0x401eb0
bb.initbuffer,0x4029a0
bb.main,0x4019e0
