bb.parse_number,0x4080c0
bb.rpl_strtod,0x408430
bb.print_float,0x403fd0
bb.ftoastr,0x404ee0
bb.print_double,0x403ee0
bb.dtoastr,0x404db0
bb.print_long_double,0x403df0
bb.ldtoastr,0x405010
bb.print_s_char,0x403d60
bb.print_char,0x403cd0
bb.print_s_short,0x403c20
bb.print_short,0x403b70
bb.print_int,0x403ab0
bb.print_long,0x4039e0
bb.print_long_long,0x403910
bb.print_named_ascii,0x403850
bb.print_ascii,0x403700
bb.xprintf,0x406a10
bb.xvprintf,0x4069d0
bb.rpl_vprintf,0x40f450
bb.format_address_label,0x402ea0
bb.format_address_paren,0x402e60
bb.format_address_std,0x402d80
bb.check_and_close,0x4041b0
bb.read_block,0x4042e0
bb.write_block,0x4045c0
bb.read_char,0x404560
bb.get_lcm,0x402d10
bb.skip,0x4043b0
bb.usage,0x4047b0
bb.parse_old_offset,0x402ed0
bb.open_next_file,0x4040b0
