bb.rpl_readlink,0x409ba0
bb.triple_compare_ino_str,0x404190
bb.triple_hash,0x404160
bb.hash_pjw,0x4091d0
bb.triple_free,0x4041d0
bb.areadlink_with_size,0x408f30
bb.seen_file,0x4034e0
bb.mgetgroups,0x4095a0
bb.rpl_getgroups,0x409b80
bb.parse_additional_groups,0x4028f0
bb.usage,0x402b50
bb.xgetcwd,0x406d20
bb.main,0x402130
