bb.freea,0x41b840
bb.mmalloca,0x41b7c0
bb.save_abbr,0x40f740
bb.rpl_unsetenv,0x40fda0
bb.rpl_setenv,0x41b620
bb.ranged_convert,0x40ddf0
bb.rpl_localtime,0x40dd20
bb.rpl_mktime,0x40e7f0
bb.tzfree,0x40f9c0
bb.debug_print_current_time.part.9,0x405760
bb.debug_strfdatetime.constprop.11,0x4055f0
bb.nstrftime,0x41a510
bb.debug_print_relative_time.part.10,0x4053c0
bb.str_days.constprop.12,0x4052f0
bb.time_zone_hhmm.isra.3,0x4051c0
bb.apply_relative_time.isra.1,0x404c10
bb.mktime_ok,0x404ba0
bb.dbg_printf,0x404ae0
bb.mktime_z,0x40fb10
bb.rpl_timegm,0x40fcd0
bb.fprintftime,0x4049e0
bb.imaxtostr,0x404a40
bb.settime,0x40b890
bb.show_date,0x402690
bb.localtime_rz,0x40f9f0
bb.set_tz,0x40f5d0
bb.posixtime,0x409a90
bb.parse_datetime2,0x407ba0
bb.tzalloc,0x40f920
bb.rpl_tzset,0x40fcf0
bb.usage,0x402780
bb.__xargmatch_internal,0x402b90
bb.rpl_putenv,0x40f2b0
bb.main,0x401eb0
bb.tm_year_str,0x401e50
