bb.knuth_morris_pratt_multibyte,0x40b080
bb.knuth_morris_pratt,0x40af00
bb.str_iconv,0x40d190
bb.mbsstr,0x40bc50
bb.mbsstr_trimmed_wordbounded,0x405e30
bb.trim2,0x407f40
bb.prime_p.part.3,0x403a30
bb.prime2_p.part.4,0x4045c0
bb.factor_insert_large,0x402890
bb.millerrabin2,0x402600
bb.powm2,0x402330
bb.lbuf_putc,0x4020b0
bb.mulredc2,0x401ea0
bb.readtoken,0x407cf0
bb.proper_name_utf8,0x4068b0
bb.usage,0x405a30
bb.print_factors,0x4058c0
bb.print_factors_single,0x405790
bb.print_uintmaxes,0x4021d0
bb.init_tokenbuffer,0x407ce0
bb.main,0x401b70
