bb.set_window_size,0x402ad0
bb.display_window_size,0x402c80
bb.visible.part.0,0x402ba0
bb.wrapf,0x402860
bb.display_speed,0x402970
bb.screen_columns,0x4027a0
bb.usage,0x402d40
bb.apply_settings,0x403360
bb.main,0x401c10
